{
	"Countries": [{
			"@ID": "1",
			"Name": "Latvia",
			"CapitalCity": "Rīga",
			"Currency": "EUR",
			"GDP": "63.490",
			"Delete": ""
		},
		{
			"@ID": "2",
			"Name": "Germany",
			"CapitalCity": "Berlin",
			"Currency": "EUR",
			"GDP": "4444.000",
			"Delete": "x"
		},
		{
			"@ID": "3",
			"Name": "Finland",
			"CapitalCity": "Helsinki",
			"Currency": "EUR",
			"GDP": "276.7",
			"Delete": ""
		}
	]
}